{
  "uid": "admin/users",
  "layouts": {
    "displayName": "Admin User",
    "searchable": false,
    "creatable": true,
    "list": [
      { "key": "email", "dataIndex": "email", "title": "Email" },
      { "key": "firstname", "dataIndex": "firstname", "title": "First Name" },
      { "key": "lastname", "dataIndex": "lastname", "title": "Last Name" },
      { "key": "roles", "dataIndex": "roles", "title": "Roles" },
      { "key": "isActive", "dataIndex": "isActive", "title": "Active", "note": "render-bool", "align": "center" },
      { "key": "createdAt", "dataIndex": "createdAt", "title": "Created At", "note": "render-date", "align": "center" }
    ],
    "edit": [
      [
        {
          "label": "First Name",
          "placeholder": "First Name",
          "name": "firstname",
          "size": 6,
          "type": "string",
          "required": true
        },
        {
          "label": "Last Name",
          "placeholder": "Last Name",
          "name": "lastname",
          "size": 6,
          "type": "string",
          "required": true
        }
      ],
      [
        { "label": "Email", "placeholder": "Email", "name": "email", "size": 6, "type": "string", "required": true },
        {
          "label": "Password",
          "placeholder": "Password",
          "name": "password",
          "size": 6,
          "type": "password",
          "required": true,
          "skipRequiredEdit": true
        }
      ],
      [
        {
          "label": "Roles",
          "placeholder": "Roles",
          "name": "roles",
          "size": 10,
          "type": "relation",
          "required": true,
          "target": "admin/roles/relation"
        },
        { "label": "Active", "name": "isActive", "size": 2, "type": "boolean" }
      ]
    ],
    "defaultValue": { "isActive": false }
  }
}
