{
  "uid": "transactions",
  "layouts": {
    "displayName": "transactions",
    "exportable": true,
    "notify": true,
    "filterable": [
      [
        { "label": "Code", "placeholder": "Code", "name": "code", "size": 6, "type": "string" },
        {
          "label": "Status",
          "placeholder": "Status",
          "name": "status",
          "size": 6,
          "type": "enumeration",
          "mode": "tags",
          "enum": ["CONFIRMED", "CANCELLED", "NEW", "PAID"]
        },
        {
          "label": "Type",
          "placeholder": "Type",
          "name": "type",
          "size": 6,
          "mode": "tags",
          "type": "enumeration",
          "enum": ["BUY", "SELL"]
        }
      ]
    ],
    "list": [
      { "key": "code", "dataIndex": "code", "title": "Transition ID", "align": "center" },
      { "key": "images", "dataIndex": "images", "title": "images", "align": "center", "note": "render-img" },
      { "key": "tokenName", "dataIndex": "tokenName", "title": "Symbol" },
      { "key": "type", "dataIndex": "type", "title": "type", "align": "center" },
      { "key": "status", "dataIndex": "status", "title": "Status", "align": "center", "note": "render-status" },
      { "key": "ethereumAmount", "dataIndex": "ethereumAmount", "title": "Amount Spend", "align": "center" },
      { "key": "coinAmount", "dataIndex": "coinAmount", "title": "Amount Received", "align": "center" },
      { "key": "ip", "dataIndex": "ip", "title": "IP" },
      { "key": "createdAt", "dataIndex": "createdAt", "title": "Created At", "align": "center", "note": "render-date" }
    ],
    "edit": [
      [
        { "label": "Code", "placeholder": "Code", "name": "code", "size": 6, "type": "string", "disabled": true },
        {
          "label": "Type",
          "placeholder": "Type",
          "name": "type",
          "size": 6,
          "type": "string",
          "disabled": true
        },
        {
          "label": "Coin",
          "placeholder": "",
          "name": "Token",
          "size": 6,
          "type": "orders-products",
          "columns": [
            { "key": "images", "dataIndex": "images", "title": "images", "note": "render-img" },
            { "key": "tokenName", "dataIndex": "tokenName", "title": "Name" },
            { "key": "price", "dataIndex": "price", "title": "price" }
          ]
        },
        {
          "label": "Status",
          "placeholder": "Status",
          "name": "status",
          "size": 6,
          "mode": "tags",
          "type": "enumeration",
          "enum": ["CONFIRMED", "CANCELLED", "NEW", "PAID"]
        }
      ],
      [
        {
          "label": "Amount Spend",
          "placeholder": "Amount",
          "name": "ethereumAmount",
          "size": 6,
          "type": "number"
        },
        {
          "label": "Amount Received",
          "placeholder": "Amount",
          "name": "coinAmount",
          "size": 6,
          "type": "number"
        },
        {
          "label": "Address transaction",
          "placeholder": "Address transaction",
          "name": "addressWalletPain",
          "size": 6,
          "type": "string",
          "disabled": true
        }
      ],
      [
        {
          "label": "Created By",
          "placeholder": "Created By",
          "name": "createdBy",
          "size": 6,
          "type": "string",
          "disabled": true
        },
        {
          "label": "Created At",
          "placeholder": "Created At",
          "name": "createdAt",
          "size": 6,
          "type": "string",
          "disabled": true
        }
      ],
      [
        {
          "label": "User",
          "placeholder": "",
          "name": "User",
          "size": 6,
          "type": "orders-products",
          "columns": [
            { "key": "email", "dataIndex": "email", "title": "Email" },
            { "key": "id", "dataIndex": "id", "title": "Id", "note": "render-link" }
          ]
        },
        {
          "label": "Owner Users",
          "placeholder": "",
          "name": "OwnerUsers",
          "size": 6,
          "type": "orders-products",
          "columns": [
            { "key": "email", "dataIndex": "email", "title": "Email" },
            { "key": "id", "dataIndex": "id", "title": "Id", "note": "render-link" }
          ]
        }
      ]
    ]
  }
}
